module go-google

go 1.17

require (
	github.com/logrusorgru/aurora/v3 v3.0.0
	github.com/rocketlaunchr/google-search v1.1.4
)

require (
	github.com/PuerkitoBio/goquery v1.5.0 // indirect
	github.com/andybalholm/cascadia v1.0.0 // indirect
	github.com/antchfx/htmlquery v1.0.0 // indirect
	github.com/antchfx/xmlquery v1.0.0 // indirect
	github.com/antchfx/xpath v1.0.0 // indirect
	github.com/gobwas/glob v0.2.3 // indirect
	github.com/gocolly/colly/v2 v2.0.1 // indirect
	github.com/golang/protobuf v1.5.2 // indirect
	github.com/google/go-cmp v0.5.6 // indirect
	github.com/kennygrant/sanitize v1.2.4 // indirect
	github.com/saintfish/chardet v0.0.0-20120816061221-3af4cd4741ca // indirect
	github.com/stretchr/testify v1.6.1 // indirect
	github.com/temoto/robotstxt v1.1.1 // indirect
	golang.org/x/net v0.0.0-20210503060351-7fd8e65b6420 // indirect
	golang.org/x/text v0.3.6 // indirect
	golang.org/x/time v0.0.0-20201208040808-7e3f01d25324 // indirect
	golang.org/x/xerrors v0.0.0-20200804184101-5ec99f83aff1 // indirect
	google.golang.org/appengine v1.6.7 // indirect
	google.golang.org/protobuf v1.27.1 // indirect
)
